{
    "prepare_queue": {
        "installed": [],
        "uninstalled": []
    },
    "config_munge": {
        "files": {}
    },
    "installed_plugins": {
        "cordova-plugin-badge": {
            "PACKAGE_NAME": "com.ionicframework.crescentfordotd1911c9b4"
        },
        "cordova-plugin-console": {
            "PACKAGE_NAME": "com.ionicframework.crescentfordotd1911c9b4"
        },
        "cordova-plugin-device": {
            "PACKAGE_NAME": "com.ionicframework.crescentfordotd1911c9b4"
        },
        "cordova-plugin-inappbrowser": {
            "PACKAGE_NAME": "com.ionicframework.crescentfordotd1911c9b4"
        },
        "cordova-plugin-splashscreen": {
            "PACKAGE_NAME": "com.ionicframework.crescentfordotd1911c9b4"
        },
        "cordova-plugin-statusbar": {
            "PACKAGE_NAME": "com.ionicframework.crescentfordotd1911c9b4"
        },
        "cordova-plugin-whitelist": {
            "PACKAGE_NAME": "com.ionicframework.crescentfordotd1911c9b4"
        },
        "cordova-plugin-wkwebview-engine": {
            "PACKAGE_NAME": "com.ionicframework.crescentfordotd1911c9b4"
        },
        "ionic-plugin-keyboard": {
            "PACKAGE_NAME": "com.ionicframework.crescentfordotd1911c9b4"
        },
        "phonegap-plugin-push": {
            "SENDER_ID": "1027849120554",
            "PACKAGE_NAME": "com.ionicframework.crescentfordotd1911c9b4"
        }
    },
    "dependent_plugins": {}
}